PONumber	Firstname	Lastname	CompanyAttn	Phone	Address	City	State	Postal	Country	ItemID	Quantity	MaxExpectedTotal
TESTORDER1	John	Doe	Foomatic	333-333-3333	1530 N Technology Suite 100	Orem	UT	84095	US	1930230	1	56.81
PO_890097	John	Doe	Foomatic	333-333-3333	1530 N Technology Suite 100	Orem	UT	84095	US	1833811	1	18.48
PO_890097	John	Doe	Foomatic	333-333-3333	1530 N Technology Suite 100	Orem	UT	84095	US	2004117	1	18.48
